[gd_scene load_steps=7 format=2]

[ext_resource path="res://Asteroid.gd" type="Script" id=1]
[ext_resource path="res://Asteroids.png" type="Texture" id=2]

[sub_resource type="CapsuleShape2D" id=2]
radius = 13.0
height = 16.967

[sub_resource type="CapsuleShape2D" id=3]
radius = 7.03981
height = 19.7641

[sub_resource type="CapsuleShape2D" id=4]
radius = 6.26147
height = 24.647

[sub_resource type="CapsuleShape2D" id=7]
radius = 5.69847
height = 4.0

[node name="Asteroid" type="Area2D"]
collision_layer = 9
collision_mask = 0
script = ExtResource( 1 )

[node name="Sprite" type="Sprite" parent="."]
position = Vector2( 0, 1.52588e-05 )
texture = ExtResource( 2 )
hframes = 4
vframes = 2
region_rect = Rect2( 0, 0, 64, 128 )

[node name="CollisionShape2D" type="CollisionShape2D" parent="."]
position = Vector2( 1, 0 )
rotation = -0.868611
scale = Vector2( 1.25125, 0.888337 )
shape = SubResource( 2 )

[node name="CollisionShape2D2" type="CollisionShape2D" parent="."]
position = Vector2( 2, 1 )
rotation = -0.868611
scale = Vector2( 1.25125, 0.888337 )
shape = SubResource( 3 )
disabled = true

[node name="CollisionShape2D3" type="CollisionShape2D" parent="."]
position = Vector2( 0, -1 )
rotation = 0.40415
scale = Vector2( 1.25125, 0.888337 )
shape = SubResource( 4 )
disabled = true

[node name="CollisionShape2D4" type="CollisionShape2D" parent="."]
position = Vector2( 2, 1 )
rotation = -0.83306
shape = SubResource( 7 )
